10. Experimentos Fatoriais – Aulas
…
library(rio) # importar e exportar arquivos
library(AgroR) # fazer anova
library(metan) # gráficos
library(tidyverse) # manipulação de dados e gráficos

# dados
url <- "https://bit.ly/df_biostat"
df_cobmassa <- import(url, sheet = "COBERTURA_N_MASSA", setclass = "tbl")
df_cobmassa <- metan::as_factor(df_cobmassa, 1:3)

# Apenas para mostrar a estrutura dos dados
df_cobmassa

# A tibble: 32 × 6
   NITROGENIO ESPECIE     REP       MV    MS   MSR
   <fct>      <fct>       <fct>  <dbl> <dbl> <dbl>
 1 Sem N      Aveia Preta 1     17939. 3640.  53.2
 2 Sem N      Aveia Preta 2     20738. 4190. 709. 
 3 Sem N      Aveia Preta 3     37780  6958. 688  
 4 Sem N      Aveia Preta 4     15448  3055.  98  
 5 Sem N      Centeio     1     30836. 7001. 347. 
 6 Sem N      Centeio     2     22246  5540  246. 
 7 Sem N      Centeio     3     12422  3330. 169. 
 8 Sem N      Centeio     4     15220. 3797. 213. 
 9 Sem N      Triticale   1     14700. 2989. 268. 
10 Sem N      Triticale   2     19146. 3652. 399. 
# ℹ 22 more rows
…
Com interação significativa

Os tratamentos e delineamentos são descritos no exemplo anterior. Aqui, são analisados os dados observados na cultura da soja, semeada na resteva de cada tratamento (combinação de N e espécies de cobertura)

df_cobsoja <- import(url, sheet = "COBERTURA_N_SOJA", setclass = "tbl")
df_cobsoja <- as_factor(df_cobsoja, 1:3)

# Apenas para mostrar a estrutura dos dados
df_cobsoja

# A tibble: 32 × 7
   ESPECIE     NITROGENIO REP      NL   NGL   MMG    RG
   <fct>       <fct>      <fct> <dbl> <dbl> <dbl> <dbl>
 1 Aveia Preta Sem N      R1     30    2.25   180 3547.
 2 Aveia Preta Sem N      R2     40.8  2.55   190 4117.
 3 Aveia Preta Sem N      R3     34.6  2.6    170 3381.
 4 Aveia Preta Sem N      R4     37.6  2.52   160 3733.
 5 Centeio     Sem N      R1     38.6  2.15   180 3819.
 6 Centeio     Sem N      R2     40.6  2.1    170 1739.
 7 Centeio     Sem N      R3     37.6  2.48   180 3928.
 8 Centeio     Sem N      R4     38    2.39   150 3339.
 9 Triticale   Sem N      R1     35.6  2.46   210 4400 
10 Triticale   Sem N      R2     32.2  2.42   200 4378.
# ℹ 22 more rows
…
GRÁFICO

Como não a houve diferença para os efeitos principais (ESPECIE E NITROGÊNIO) mas deu interação entre estes fatores, é apresentado um gráfico mostrando essa interação. No gráfico, letras minúsculas comparam as espécies dentro de cada manejo de N e maiúsculas comparam o manejo de N dentro de cada espécie. As barras mostram a média e as barras de erro, o erro padrão da média.

Quali x quanti

Sem interação significativa

O conjunto de dados utilizado neste exemplo será o FAT2_SI representando doses de Nitrogênio x híbridos de milho. Como já de conhecimento prévio, a interação não é significativa neste exemplo.

FAT2_SI <- import(url, sheet = "FAT2_SI", setclass = "tbl")
FAT2_SI

# A tibble: 40 × 4
   BLOCO HIBRIDO DOSEN    RG
   <dbl> <chr>   <dbl> <dbl>
 1     1 NUPEC_1     0  6.9 
 2     1 NUPEC_1    25  7.44
 3     1 NUPEC_1    50  7.65
 4     1 NUPEC_1    75  7.5 
 5     1 NUPEC_1   100  7.03
 6     1 NUPEC_2     0  6.68
 7     1 NUPEC_2    25  7.14
 8     1 NUPEC_2    50  7.26
 9     1 NUPEC_2    75  7.03
10     1 NUPEC_2   100  6.69
# ℹ 30 more rows
…
Com interação significativa

O conjunto de dados utilizado neste exemplo será o FAT2_CI. Neste exemplo já sabe-se que a interação híbrido x dose de N é significativa.

FAT2_CI <- import(url, sheet = "FAT2_CI", setclass = "tbl")
FAT2_CI

# A tibble: 40 × 4
   BLOCO HIBRIDO DOSEN    RG
   <dbl> <chr>   <dbl> <dbl>
 1     1 NUPEC_1     0 11.2 
 2     1 NUPEC_1    25 12.4 
 3     1 NUPEC_1    50 13   
 4     1 NUPEC_1    75 12.5 
 5     1 NUPEC_1   100 11.4 
 6     1 NUPEC_2     0  9.22
 7     1 NUPEC_2    25  9.70
 8     1 NUPEC_2    50 10.1 
 9     1 NUPEC_2    75 10.9 
10     1 NUPEC_2   100 11.4 
# ℹ 30 more rows
…
