Aulas - 5. Visualização de dados
…
O seguinte exemplo mostra a temperatura mínima, média e máxima ao longo dos dias desde 01/01/2022.

Primeiro, é preciso obter as temperaturas mínimas, máximas e médias de cada dia. Fazemos isso com a função summarise().

clima_max_min <-
  df_estacao %>%
  group_by(dia) %>% 
  summarise(max = max(tmax),
            min = min(tmin),
            mean = mean(tmed),
            precip = sum(prec)) %>% 
  pivot_longer(-dia)
clima_max_min

# A tibble: 1,152 × 3
   dia        name   value
   <date>     <chr>  <dbl>
 1 2022-01-01 max     28.7
 2 2022-01-01 min      0  
 3 2022-01-01 mean    24.0
 4 2022-01-01 precip   0  
 5 2022-01-02 max     31.8
 6 2022-01-02 min     23.4
 7 2022-01-02 mean    27.1
 8 2022-01-02 precip   0  
 9 2022-01-03 max     32.4
10 2022-01-03 min     24.3
# … with 1,142 more rows
…
