Aulas - 4. Manipulação de Dados
…
cols: o conjunto de colunas cujos nomes são valores, não variáveis. Neste exemplo, essas são as colunas P1, P2, P3, P4 e P5.

names_to: O nome da variável para a qual mover os nomes das colunas. Aqui será "PLANTA".

values_to: O nome da variável para a qual mover os valores da coluna. Aqui será "ALTURA".

long <- 
  pivot_longer(df_wide,
               cols = P1:P5,
               names_to = "PLANTA",
               values_to = "AP")
long

# A tibble: 45 × 5
      UE BLOCO ADUBACAO PLANTA    AP
   <dbl> <dbl> <chr>    <chr>  <dbl>
 1     1     1 AO       P1      16  
 2     1     1 AO       P2      17  
 3     1     1 AO       P3      19  
 4     1     1 AO       P4      15  
 5     1     1 AO       P5      17  
 6     2     1 AQ       P1      21.5
 7     2     1 AQ       P2      17  
 8     2     1 AQ       P3      13.5
 9     2     1 AQ       P4      14  
10     2     1 AQ       P5      15  
# … with 35 more rows

tidyselect style notation

A seleção de variáveis no universo tidy é prioritariamente suportada pelo pacote tidyselect. Isso significa que a seleção de variáveis pode ser realizada com base em seus nomes, posições, ou propriedades.

# seleciona variáveis que contém uma determinada string
pivot_longer(df_wide,
             cols = starts_with("P"),
             names_to = "PLANTA",
             values_to = "ALTURA") |> 
  print(n = 3)

# A tibble: 45 × 5
     UE BLOCO ADUBACAO PLANTA ALTURA
  <dbl> <dbl> <chr>    <chr>   <dbl>
1     1     1 AO       P1         16
2     1     1 AO       P2         17
3     1     1 AO       P3         19
# … with 42 more rows

# seleciona variáveis por sua posição
pivot_longer(df_wide,
             cols = 4:8,
             names_to = "PLANTA",
             values_to = "ALTURA") |> 
  print(n = 3)

# A tibble: 45 × 5
     UE BLOCO ADUBACAO PLANTA ALTURA
  <dbl> <dbl> <chr>    <chr>   <dbl>
1     1     1 AO       P1         16
2     1     1 AO       P2         17
3     1     1 AO       P3         19
# … with 42 more rows
…
