Aulas - 6. Resumo
…
Fonte: https://dplyr.tidyverse.org/index.html

A função mutate() é utilizada quando se deseja adicionar novas variáveis no conjunto de dados. Estas variáveis são funções de variáveis existentes. Como exemplo, vamos criar uma nova variável chamada CD no conjunto de dados maize, qual será a razão entre CESP e DIES. Note que a função adiciona a nova variável após a última variável origina e mantém todas as demais. Você pode controlar a posição da nova variável criada utilizando os argumentos .before e .after (assim como na função relocate()) e quais variáveis são mantidas utilizando o argumento .keep.

# padrão: nova variável inserida na última posição
maize %>% mutate(CD = CESP/DIES)

# A tibble: 780 × 11
   AMB   HIB   REP   APLA_PLANT AIES_PLANT  CESP  DIES  MGRA   MMG  NGRA     CD
   <chr> <chr> <chr>      <dbl>      <dbl> <dbl> <dbl> <dbl> <dbl> <dbl>  <dbl>
 1 A1    H1    I           2.45       2.39  16.9  52.1 228.   375.    NA  0.324
 2 A1    H1    I           2.5        1.43  14.4  50.7 187.   437.   427  0.284
 3 A1    H1    I           2.69       1.52  16.5  54.7 230.   464.   497  0.302
 4 A1    H1    I           2.8        1.64  16.8  52.0 213.   408.   523  0.323
 5 A1    H1    I           2.62       1.55  15.9  51.6 224.   406.   551  0.308
 6 A1    H1    II          2.12       1.8   15    51.4 203.   383.   529  0.292
 7 A1    H1    II          3.15       1.78  10.9  NA    75.2  256.   294 NA    
 8 A1    H1    II          2.97       1.84  15    53.4 204.   387.   528  0.281
 9 A1    H1    II          3.1        1.78  13.6  50.8 187.   348.   538  0.267
10 A1    H1    II          3.02       1.6   16.3  53.9 250.   430.   582  0.302
# … with 770 more rows

# posição da nova variável
maize %>% mutate(CD = CESP/DIES, 
                 .after = DIES)

# A tibble: 780 × 11
   AMB   HIB   REP   APLA_PLANT AIES_PLANT  CESP  DIES     CD  MGRA   MMG  NGRA
   <chr> <chr> <chr>      <dbl>      <dbl> <dbl> <dbl>  <dbl> <dbl> <dbl> <dbl>
 1 A1    H1    I           2.45       2.39  16.9  52.1  0.324 228.   375.    NA
 2 A1    H1    I           2.5        1.43  14.4  50.7  0.284 187.   437.   427
 3 A1    H1    I           2.69       1.52  16.5  54.7  0.302 230.   464.   497
 4 A1    H1    I           2.8        1.64  16.8  52.0  0.323 213.   408.   523
 5 A1    H1    I           2.62       1.55  15.9  51.6  0.308 224.   406.   551
 6 A1    H1    II          2.12       1.8   15    51.4  0.292 203.   383.   529
 7 A1    H1    II          3.15       1.78  10.9  NA   NA      75.2  256.   294
 8 A1    H1    II          2.97       1.84  15    53.4  0.281 204.   387.   528
 9 A1    H1    II          3.1        1.78  13.6  50.8  0.267 187.   348.   538
10 A1    H1    II          3.02       1.6   16.3  53.9  0.302 250.   430.   582
# … with 770 more rows

# mantém somente as utilizadas no cálculo
maize %>% mutate(CD = CESP/DIES,
                 .keep = "used")

# A tibble: 780 × 3
    CESP  DIES     CD
   <dbl> <dbl>  <dbl>
 1  16.9  52.1  0.324
 2  14.4  50.7  0.284
 3  16.5  54.7  0.302
 4  16.8  52.0  0.323
 5  15.9  51.6  0.308
 6  15    51.4  0.292
 7  10.9  NA   NA    
 8  15    53.4  0.281
 9  13.6  50.8  0.267
10  16.3  53.9  0.302
# … with 770 more rows

# mantém as não utilizadas
maize %>% mutate(CD = CESP/DIES,
                 .keep = "unused")

# A tibble: 780 × 9
   AMB   HIB   REP   APLA_PLANT AIES_PLANT  MGRA   MMG  NGRA     CD
   <chr> <chr> <chr>      <dbl>      <dbl> <dbl> <dbl> <dbl>  <dbl>
 1 A1    H1    I           2.45       2.39 228.   375.    NA  0.324
 2 A1    H1    I           2.5        1.43 187.   437.   427  0.284
 3 A1    H1    I           2.69       1.52 230.   464.   497  0.302
 4 A1    H1    I           2.8        1.64 213.   408.   523  0.323
 5 A1    H1    I           2.62       1.55 224.   406.   551  0.308
 6 A1    H1    II          2.12       1.8  203.   383.   529  0.292
 7 A1    H1    II          3.15       1.78  75.2  256.   294 NA    
 8 A1    H1    II          2.97       1.84 204.   387.   528  0.281
 9 A1    H1    II          3.1        1.78 187.   348.   538  0.267
10 A1    H1    II          3.02       1.6  250.   430.   582  0.302
# … with 770 more rows

# mantém somente a variável criada
maize %>% mutate(CD = CESP/DIES,
                 .keep = "none")

# A tibble: 780 × 1
       CD
    <dbl>
 1  0.324
 2  0.284
 3  0.302
 4  0.323
 5  0.308
 6  0.292
 7 NA    
 8  0.281
 9  0.267
10  0.302
# … with 770 more rows
…
A função group_by() pode ser utilizada para realizar mutação dentro de cada nível de uma ou mais variáveis categóricas. Para este exemplo, vamos criar uma variável (rank) que será o rankeamento das observações dentro de cada híbrido com base na MGRA (em ordem decrescente).

maize |> 
  group_by(HIB) |> 
  mutate(rank = rank(desc(MGRA)))

# A tibble: 780 × 11
# Groups:   HIB [13]
   AMB   HIB   REP   APLA_PLANT AIES_PLANT  CESP  DIES  MGRA   MMG  NGRA  rank
   <chr> <chr> <chr>      <dbl>      <dbl> <dbl> <dbl> <dbl> <dbl> <dbl> <dbl>
 1 A1    H1    I           2.45       2.39  16.9  52.1 228.   375.    NA     8
 2 A1    H1    I           2.5        1.43  14.4  50.7 187.   437.   427    33
 3 A1    H1    I           2.69       1.52  16.5  54.7 230.   464.   497     7
 4 A1    H1    I           2.8        1.64  16.8  52.0 213.   408.   523    15
 5 A1    H1    I           2.62       1.55  15.9  51.6 224.   406.   551     9
 6 A1    H1    II          2.12       1.8   15    51.4 203.   383.   529    22
 7 A1    H1    II          3.15       1.78  10.9  NA    75.2  256.   294    60
 8 A1    H1    II          2.97       1.84  15    53.4 204.   387.   528    21
 9 A1    H1    II          3.1        1.78  13.6  50.8 187.   348.   538    31
10 A1    H1    II          3.02       1.6   16.3  53.9 250.   430.   582     5
# … with 770 more rows
…
Fonte: https://dplyr.tidyverse.org/reference/across.html

Em alguns casos, deseja-se aplicar a mesma função de mutação (ou resumo) à várias variáveis. A função across() facilita a aplicação da mesma transformação a várias colunas, permitindo que você use a semântica select() dentro de funções como summarise() e mutate(). Como exemplo de aplicação, vamos criar uma função para rescalar uma variável para uma amplitude 0-1 e aplicar essa função à todas as colunas numéricas do conjunto maize.

# função para rescalar
rescale <- function(x) {
  rng <- range(x, na.rm = TRUE)
  (x - rng[1]) / (rng[2] - rng[1])
}

# aplica a função rescale() a todas as colunas numéricas
maize %>% mutate(across(where(is.numeric), rescale))

# A tibble: 780 × 10
   AMB   HIB   REP   APLA_PLANT AIES_PLANT  CESP   DIES   MGRA   MMG   NGRA
   <chr> <chr> <chr>      <dbl>      <dbl> <dbl>  <dbl>  <dbl> <dbl>  <dbl>
 1 A1    H1    I          0.630      1     0.821  0.674 0.730  0.596 NA    
 2 A1    H1    I          0.652      0.492 0.694  0.611 0.551  0.742  0.370
 3 A1    H1    I          0.735      0.540 0.801  0.786 0.739  0.805  0.463
 4 A1    H1    I          0.783      0.603 0.816  0.670 0.666  0.674  0.497
 5 A1    H1    I          0.704      0.556 0.770  0.652 0.710  0.669  0.534
 6 A1    H1    II         0.487      0.688 0.724  0.645 0.620  0.615  0.505
 7 A1    H1    II         0.935      0.677 0.515 NA     0.0717 0.314  0.194
 8 A1    H1    II         0.857      0.709 0.724  0.728 0.627  0.624  0.504
 9 A1    H1    II         0.913      0.677 0.653  0.620 0.553  0.532  0.517
10 A1    H1    II         0.878      0.582 0.791  0.752 0.825  0.726  0.575
# … with 770 more rows

# aplica a função rescale() para algumas colunas
maize %>% mutate(across(MGRA:NGRA, rescale))

# A tibble: 780 × 10
   AMB   HIB   REP   APLA_PLANT AIES_PLANT  CESP  DIES   MGRA   MMG   NGRA
   <chr> <chr> <chr>      <dbl>      <dbl> <dbl> <dbl>  <dbl> <dbl>  <dbl>
 1 A1    H1    I           2.45       2.39  16.9  52.1 0.730  0.596 NA    
 2 A1    H1    I           2.5        1.43  14.4  50.7 0.551  0.742  0.370
 3 A1    H1    I           2.69       1.52  16.5  54.7 0.739  0.805  0.463
 4 A1    H1    I           2.8        1.64  16.8  52.0 0.666  0.674  0.497
 5 A1    H1    I           2.62       1.55  15.9  51.6 0.710  0.669  0.534
 6 A1    H1    II          2.12       1.8   15    51.4 0.620  0.615  0.505
 7 A1    H1    II          3.15       1.78  10.9  NA   0.0717 0.314  0.194
 8 A1    H1    II          2.97       1.84  15    53.4 0.627  0.624  0.504
 9 A1    H1    II          3.1        1.78  13.6  50.8 0.553  0.532  0.517
10 A1    H1    II          3.02       1.6   16.3  53.9 0.825  0.726  0.575
# … with 770 more rows

Também é possível utilizar a semântica select() dentro de across(). Isso significa que select helpers podem ser utilizados. No exemplo abaixo apenas as variáveis que contém "_PLANT" são mutadas, sendo que os valores destas variáveis são divididos por 2.

# usando select helpers
# divide o valor da variável pela metade
# atribui um sufixo para as novas variáveis
# seleciona apenas as utilizadas
maize %>%
  mutate(across(contains("_PLANT"), ~.x / 2,
                .names = "{.col}_metade"),
         .after = AIES_PLANT,
         .keep = "used")

# A tibble: 780 × 4
   APLA_PLANT AIES_PLANT APLA_PLANT_metade AIES_PLANT_metade
        <dbl>      <dbl>             <dbl>             <dbl>
 1       2.45       2.39              1.23             1.20 
 2       2.5        1.43              1.25             0.715
 3       2.69       1.52              1.34             0.76 
 4       2.8        1.64              1.4              0.82 
 5       2.62       1.55              1.31             0.775
 6       2.12       1.8               1.06             0.9  
 7       3.15       1.78              1.58             0.89 
 8       2.97       1.84              1.48             0.92 
 9       3.1        1.78              1.55             0.89 
10       3.02       1.6               1.51             0.8  
# … with 770 more rows
…
Fonte: https://dplyr.tidyverse.org/index.html

Uma variável, uma estatística

Diversos verbos do pacote dplyr podem ser utilizados para resumir conjuntos de dados. Iniciaremos com a função count() para contar valores que se repetem em uma determinada variável. Por exemplo, é possível identificar qual é o valor de NGRA que mais se repete utilizando

maize |> count(NGRA, sort = TRUE)

# A tibble: 367 × 2
    NGRA     n
   <dbl> <int>
 1   419     8
 2   513     8
 3   503     7
 4   528     7
 5   529     7
 6   538     7
 7   451     6
 8   481     6
 9   493     6
10   530     6
# … with 357 more rows

Para identificar quais os valores distintos de NGRA foram observados a função distinct() é usada.

maize |> distinct(NGRA)

# A tibble: 367 × 1
    NGRA
   <dbl>
 1    NA
 2   427
 3   497
 4   523
 5   551
 6   529
 7   294
 8   528
 9   538
10   582
# … with 357 more rows
…
maize %>%
   group_by(HIB) %>%
  summarise(my_quantile(MGRA, c(0.25, 0.75)))

`summarise()` has grouped output by 'HIB'. You can override using the `.groups`
argument.

# A tibble: 26 × 3
# Groups:   HIB [13]
   HIB       x probs
   <chr> <dbl> <dbl>
 1 H1     162.  0.25
 2 H1     211.  0.75
 3 H10    131.  0.25
 4 H10    199.  0.75
 5 H11    144.  0.25
 6 H11    193.  0.75
 7 H12    121.  0.25
 8 H12    186.  0.75
 9 H13    146.  0.25
10 H13    211.  0.75
# … with 16 more rows
…
