Aulas - 8. Visualização de dados
…
Dados

Grãos café

Os dados contidos na aba cafe do arquivo examples_data.xlsx serão utilizados. Este arquivo contém dados do comprimento e largura (mm) de grãos de café, amostrados por diferentes grupos de alunos da disciplina de Bioestatística e Experimentação Agrícola e classificados em diferentes cores. Para carregar estes dados, utilizamos o seguinte comando.

df <- 
  import("examples_data.xlsx",
         sheet = "cafe",
         setclass = "tbl") |> 
  as_factor(1:3)
df

# A tibble: 47 × 5
   grupo   individuo cor      comprimento largura
   <fct>   <fct>     <fct>          <dbl>   <dbl>
 1 Grupo 1 1         vermelho       13.5     16.6
 2 Grupo 1 2         vermelho       11.1     14.2
 3 Grupo 1 3         vermelho       13.4     15.9
 4 Grupo 1 4         vermelho        9.87    14.1
 5 Grupo 1 5         verde          11.6     16.1
 6 Grupo 1 6         verde           9.86    13.9
 7 Grupo 1 7         verde           9.84    12.4
 8 Grupo 1 8         verde          10.7     14.8
 9 Grupo 1 9         verde           9.98    13.2
10 Grupo 1 10        verde          10.3     13  
# ℹ 37 more rows
Dados da estação meteorológica

Os dados contidos em estacao_fazenda.csv contém informações de variáveis climáticas obtidas em sensores automáticos de uma estação meteorológica localizada na Fazenda Experimental da Ressacada (UFSC)

Warning: package 'leaflet' was built under R version 4.2.3

Os dados são em escala horária, do dia 01/01/2022 a 28/11/2022, totalizando 7957 observações. Estes dados serão utilizados ainda neste material, na sessão Section 4.12.

df_estacao <-  
  import("estacao_fazenda.csv", setclass = "tbl") |>
  mutate(dia = dmy(dia),
         m = fct_relevel(factor(m), paste0(1:12))) # reordena os meses
df_estacao

# A tibble: 8,759 × 12
   dia        m      prec  tmax  tmed  tmin urmax urmed urmin dirvent velvent
   <date>     <fct> <dbl> <dbl> <dbl> <dbl> <dbl> <dbl> <dbl>   <dbl>   <dbl>
 1 2022-01-01 1         0  21.2  20.6  20.2   100  99.5  99.0     0     0    
 2 2022-01-01 1         0  20.5  19.8  19.4   100  99.9  99.6     0     0    
 3 2022-01-01 1         0  19.7  19.4  19.0   100 100.   99.9     0     0    
 4 2022-01-01 1         0  20.0  19.2  18.7   100 100   100       0     0    
 5 2022-01-01 1         0  20.5  20.2  19.8   100 100   100       0     0    
 6 2022-01-01 1         0  20.7  20.2  19.9   100 100   100      79.8   0.331
 7 2022-01-01 1         0  20.2  19.7  19.1   100 100   100       0     0    
 8 2022-01-01 1         0  20.0  19.5  19.1   100 100   100       0     0    
 9 2022-01-01 1         0  22.1  21.2   0     100  99.3   0       0     0    
10 2022-01-01 1         0  26.0  24.3  22.1   100  89.0  78.6   287.    0.087
# ℹ 8,749 more rows
# ℹ 1 more variable: rajada <dbl>
…
Gráficos de linhas

O seguinte exemplo mostra a temperatura mínima, média e máxima ao longo dos dias desde 01/01/2022. Primeiro, é preciso obter as temperaturas mínimas, máximas e médias de cada dia. Fazemos isso com a função summarise().

clima_max_min <-
  df_estacao %>%
  group_by(dia) %>% 
  summarise(max = max(tmax),
            min = min(tmin),
            mean = mean(tmed),
            precip = sum(prec)) %>% 
  pivot_longer(-dia)
clima_max_min

# A tibble: 1,460 × 3
   dia        name   value
   <date>     <chr>  <dbl>
 1 2022-01-01 max     28.7
 2 2022-01-01 min      0  
 3 2022-01-01 mean    24.0
 4 2022-01-01 precip   0  
 5 2022-01-02 max     31.8
 6 2022-01-02 min     23.4
 7 2022-01-02 mean    27.1
 8 2022-01-02 precip   0  
 9 2022-01-03 max     32.4
10 2022-01-03 min     24.3
# ℹ 1,450 more rows
…
Exercício

Motivação

A densidade de fluxo de fótons fotossintéticos (PPFD) em níveis subótimos ou superótimos pode modificar o acúmulo de biomassa, composição bromatológica e aparência das culturas. Para isso, Olivoto et al. (2018)3 investigaram o efeito de níveis de radiação no crescimento da chicória (Cichorium endivia L. var. latifolia). Os dados disponíveis na aba chicoria do conjunto de dados examples_data.xlsx são relativos a duas variáveis, à saber, matéria seca total (MST) e área foliar (AF) de plantas de chicória cultivadas em diferentes níveis de sombreamento (50, 70, e 100), e avaliados aos 21, 28 e 35 dias após o plantio.

df <-  import("examples_data.xlsx",
              sheet = "chicoria",
              setclass = "tbl")
df

# A tibble: 36 × 5
   DAP   SOM   REP     MST    AF
   <chr> <chr> <chr> <dbl> <dbl>
 1 21DAP 50R   B1     4.31  847.
 2 21DAP 50R   B2     5.25 1607.
 3 21DAP 50R   B3     4.50 1320.
 4 21DAP 50R   B4     4.61 1567.
 5 21DAP 70R   B1     4.12 1206.
 6 21DAP 70R   B2     5.52 1863.
 7 21DAP 70R   B3     5.27 1774.
 8 21DAP 70R   B4     4.26 1307.
 9 21DAP 100R  B1     5.24 1203.
10 21DAP 100R  B2     5.70 1299.
# ℹ 26 more rows
…
