Aulas - 7. Sintetização
…
Fonte: https://dplyr.tidyverse.org/index.html

Uma variável, uma estatística

Diversos verbos do pacote dplyr podem ser utilizados para resumir conjuntos de dados. Iniciaremos com a função count() para contar valores que se repetem em uma determinada variável. Por exemplo, é possível identificar qual é o valor de NGRA que mais se repete utilizando

maize |> count(NGRA, sort = TRUE)

# A tibble: 367 × 2
    NGRA     n
   <dbl> <int>
 1   419     8
 2   513     8
 3   503     7
 4   528     7
 5   529     7
 6   538     7
 7   451     6
 8   481     6
 9   493     6
10   530     6
# ℹ 357 more rows

Para identificar quais os valores distintos de NGRA foram observados a função distinct() é usada.

maize |> distinct(NGRA)

# A tibble: 367 × 1
    NGRA
   <dbl>
 1    NA
 2   427
 3   497
 4   523
 5   551
 6   529
 7   294
 8   528
 9   538
10   582
# ℹ 357 more rows
…
Diversas variáveis, diversas estatísticas

Se desejamos computar mais de uma estatística para variáveis específicas, então o próximo código nos ajudará. Note que para aplicar mais de uma função é necessário criar uma lista com o nome das funções. Neste caso, os sufixos _m e _sd representam a média e o desvio padrão, respectivamente. Faremos isso para cada nível da variável HIB.

maize %>%
  group_by(HIB, AMB) |> 
  summarise(across(starts_with("M"),
                   .fns =  list(m = mean, sd = sd)))

`summarise()` has grouped output by 'HIB'. You can override using the `.groups`
argument.

# A tibble: 52 × 6
# Groups:   HIB [13]
   HIB   AMB   MGRA_m MGRA_sd MMG_m MMG_sd
   <chr> <chr>  <dbl>   <dbl> <dbl>  <dbl>
 1 H1    A1      203.    42.2  382.   48.1
 2 H1    A2      188.    27.7  389.   22.2
 3 H1    A3      157.    54.8  369.   65.2
 4 H1    A4      187.    37.0  319.   43.6
 5 H10   A1      192.    50.0  372.   54.0
 6 H10   A2      160.    37.0  316.   52.8
 7 H10   A3      121.    36.7  247.   41.6
 8 H10   A4      183.    45.5  345.   51.3
 9 H11   A1      188.    38.9  353.   45.7
10 H11   A2      164.    34.3  342.   29.3
# ℹ 42 more rows
…
maize %>%
   group_by(HIB) %>%
  summarise(my_quantile(MGRA, c(0.25, 0.75)))

Warning: Returning more (or less) than 1 row per `summarise()` group was deprecated in
dplyr 1.1.0.
ℹ Please use `reframe()` instead.
ℹ When switching from `summarise()` to `reframe()`, remember that `reframe()`
  always returns an ungrouped data frame and adjust accordingly.

`summarise()` has grouped output by 'HIB'. You can override using the `.groups`
argument.

# A tibble: 26 × 3
# Groups:   HIB [13]
   HIB       x probs
   <chr> <dbl> <dbl>
 1 H1     162.  0.25
 2 H1     211.  0.75
 3 H10    131.  0.25
 4 H10    199.  0.75
 5 H11    144.  0.25
 6 H11    193.  0.75
 7 H12    121.  0.25
 8 H12    186.  0.75
 9 H13    146.  0.25
10 H13    211.  0.75
# ℹ 16 more rows
…
