Aulas - 3. Dados
…
SPSS

O arquivo ".sav" de exemplo foi baixado deste site

df_spss <- import("df_spss.sav", setclass = "tbl")
df_spss

# A tibble: 306 × 59
   IDnumber   age   sex workstat increg incmnth incwk housing living homepay
      <dbl> <dbl> <dbl>    <dbl>  <dbl>   <dbl> <dbl>   <dbl>  <dbl>   <dbl>
 1 20160186    19     2        3      1       0   0         2      1       1
 2 20160011    17     2        0      0       0   0         2      1       1
 3 20160081    18     2        3      1     300  69.2       2      1       1
 4 20160155    18     2        0      0       0   0         2      1       1
 5 20160182    19     2        0      1     600 138.        2      1       4
 6 20160027    17     2        0      0       0   0         2      1       4
 7 20160188    19     2        0      0       0   0         2      1      99
 8 20160013    17     2        0      0       0   0         2      1       1
 9 20160214    20     2        0      1    1500 346.        3      2       4
10 20160216    20     2        3      1     400  92.3       3      2       1
# … with 296 more rows, and 49 more variables: homecost <dbl>,
#   homecostwk <dbl>, mobile <dbl>, mobilepay <dbl>, mobilecost <dbl>,
#   mobilecostwk <dbl>, transport <dbl>, food <dbl>, entertain <dbl>,
#   privhlth <dbl>, fs_illness <dbl>, fs_accident <dbl>, fs_death <dbl>,
#   fs_mtlillness <dbl>, fs_disability <dbl>, fs_divsep <dbl>,
#   fs_nogetjob <dbl>, fs_lossofjob <dbl>, fs_alcdrug <dbl>, fs_witviol <dbl>,
#   fs_absvcrim <dbl>, fs_police <dbl>, fs_gambling <dbl>, famstress <dbl>, …

DBF

O arquivo ".dbf" de exemplo foi baixado deste site

df_dbf <- import("df_dbf.dbf", setclass = "tbl")
df_dbf

# A tibble: 67 × 15
      ID CATCOUNT AGRPCOUNT PGRPCO…¹ ORDER CODE  NAME  THUMB…² IMAGE PRICE  COST
   <int>    <int>     <int>    <int> <int> <chr> <chr> <chr>   <chr> <dbl> <dbl>
 1    87        2         0        0    87 1     Asso… graphi… grap…   0     0  
 2    26        3         0        0    26 CPKG  Chri… graphi… grap…   0    29.0
 3    27        3         0        0    27 CHOC  Choc… graphi… grap…   0    29.0
 4    28        3         0        0    28 PAST… Past… graphi… grap…   0    29.0
 5    29        2         0        0    29 CKR-… Chec… graphi… grap…  15.8  15.8
 6    30        3         0        0    30 C     Chri… graphi… grap…   0    32.0
 7    31        3         0        0    31 TBC01 Truf… graphi… grap…  19.2  19.2
 8    32        2         0        0    32 BD01  Bisc… graphi… grap…  28.8  28.8
 9    33        1         0        0    33 DS02  Dres… graphi… grap…  24.0  24.0
10    34        1         0        0    34 AB01  Apri… graphi… grap…  38.0  38.0
# … with 57 more rows, 4 more variables: DESC <chr>, WEIGHT <dbl>,
#   TAXABLE <lgl>, ACTIVE <lgl>, and abbreviated variable names ¹​PGRPCOUNT,
#   ²​THUMBNAIL
…
