Aulas - 5. Seleção e filtragem
…
# A tibble: 1 × 10
  AMB   HIB   REP   APLA_PLANT AIES_PLANT  CESP  DIES  MGRA   MMG  NGRA
  <chr> <chr> <chr>      <dbl>      <dbl> <dbl> <dbl> <dbl> <dbl> <dbl>
1 A1    H6    II          1.97       1.63  17.1  54.7  230.  375.   614

Isto é aproximadamente equivalente ao seguinte código R base.

maize[maize$MGRA > 220 & maize$APLA_PLANT < 2, ]

Você também pode usar filter() para remover grupos inteiros. Por exemplo, o código a seguir elimina todas as linhas que contém o híbrido “H1”.

maize |> filter(HIB != "H1")

# A tibble: 720 × 10
   AMB   HIB   REP   APLA_PLANT AIES_PLANT  CESP  DIES  MGRA   MMG  NGRA
   <chr> <chr> <chr>      <dbl>      <dbl> <dbl> <dbl> <dbl> <dbl> <dbl>
 1 A1    H2    I           2.45       1.24  17.7  54.7 255.   422.   604
 2 A1    H2    I           2.41       1.32  15    50.5 198.   369.   537
 3 A1    H2    I           2.62       1.16  10    47.5  94.5  380.   249
 4 A1    H2    I          NA          1.18  16.1  52.3 213.   331.   643
 5 A1    H2    I           2.65       1.21  16.6  53.2 228.   409.   558
 6 A1    H2    II          2.95       1.55  14.5  49.2 178.   258.   689
 7 A1    H2    II          2.95       1.39  15.5  54.7 233.   284.   818
 8 A1    H2    II          2.92       1.4   14    46.7 174.   288.   602
 9 A1    H2    II          2.86       1.34  16.1  55.3 273.   356.   767
10 A1    H2    II          2.84       1.35  15.5  51.6 204.   335.   607
# … with 710 more rows

# seleciona somente os híbridos H1 e H2
maize |> filter(HIB  %in%  c("H1", "H2"))

# A tibble: 120 × 10
   AMB   HIB   REP   APLA_PLANT AIES_PLANT  CESP  DIES  MGRA   MMG  NGRA
   <chr> <chr> <chr>      <dbl>      <dbl> <dbl> <dbl> <dbl> <dbl> <dbl>
 1 A1    H1    I           2.45       2.39  16.9  52.1 228.   375.    NA
 2 A1    H1    I           2.5        1.43  14.4  50.7 187.   437.   427
 3 A1    H1    I           2.69       1.52  16.5  54.7 230.   464.   497
 4 A1    H1    I           2.8        1.64  16.8  52.0 213.   408.   523
 5 A1    H1    I           2.62       1.55  15.9  51.6 224.   406.   551
 6 A1    H1    II          2.12       1.8   15    51.4 203.   383.   529
 7 A1    H1    II          3.15       1.78  10.9  NA    75.2  256.   294
 8 A1    H1    II          2.97       1.84  15    53.4 204.   387.   528
 9 A1    H1    II          3.1        1.78  13.6  50.8 187.   348.   538
10 A1    H1    II          3.02       1.6   16.3  53.9 250.   430.   582
# … with 110 more rows
…
# A tibble: 1 × 10
  AMB   HIB   REP   APLA_PLANT AIES_PLANT  CESP  DIES  MGRA   MMG  NGRA
  <chr> <chr> <chr>      <dbl>      <dbl> <dbl> <dbl> <dbl> <dbl> <dbl>
1 A4    H8    I           2.65       1.67    18    50  277.  251.   903

Ordenar linhas com base em seus valores

A função arrange() é utilizada para ordenar as linhas de um tibble (ou data.frames) com base em uma expressão envolvendo suas variáveis.

# ordena as linhas com base na variável CESP (crescente)
maize |> arrange(CESP)

# A tibble: 780 × 10
   AMB   HIB   REP   APLA_PLANT AIES_PLANT  CESP  DIES  MGRA   MMG  NGRA
   <chr> <chr> <chr>      <dbl>      <dbl> <dbl> <dbl> <dbl> <dbl> <dbl>
 1 A1    H9    I          NA          1.51 0.800  54.0 224.   420.   533
 2 A1    H8    I           2.6        1.4  5.9    52.2 225.   383.   588
 3 A3    H8    III         1.86       0.96 7.5    40.8  73.0  293.   249
 4 A1    H5    II          2.83       1.82 8.2    43.2  94.6  326.   290
 5 A4    H3    II          2.37       1.12 8.2    47.4  96.0  256.   375
 6 A2    H9    I           2.02       1.11 8.7    46.7  61.2  312.   196
 7 A4    H3    II          2.22       1.02 8.9    41.6  77.8  218.   357
 8 A3    H1    III         2.45       1.29 9      51.0  78.9  503.   157
 9 A2    H3    I           2.82       1.87 9.3    47.2 105.   294.   358
10 A1    H2    III         2.86       1.52 9.4    51.2  91.0  225.   405
# … with 770 more rows

# ordena as linhas com base na variável CESP (decrescente)
maize |> arrange(desc(CESP))

# A tibble: 780 × 10
   AMB   HIB   REP   APLA_PLANT AIES_PLANT  CESP  DIES  MGRA   MMG  NGRA
   <chr> <chr> <chr>      <dbl>      <dbl> <dbl> <dbl> <dbl> <dbl> <dbl>
 1 A4    H7    III         2.6        1.37  20.4  52    253.  408.   620
 2 A1    H10   I           2.92       1.61  20.3  55.4  283.  441.   641
 3 A3    H1    I           2          1.05  19.9  53.3  253.  444.   570
 4 A1    H10   III         2.29       1.15  19.8  55.9  276.  411.   671
 5 A3    H2    II          2.08       0.93  19.6  52.9  220.  384.   574
 6 A3    H9    III         2.07       1     19.6  48.2  190.  307.   617
 7 A4    H8    III         2.6        1.5   19.5  56.1  264.  402.   657
 8 A2    H6    III         3.18       1.62  19.2  53.0  270.  382.   708
 9 A4    H7    III         2.76       1.54  19.2  54.1  254.  417.   610
10 A1    H9    I           2.69       1.8   19    52.4  226.  428.   529
# … with 770 more rows

Ao combinar a função group_by() com arrange() é possível realizar o ordenamento para cada nível de um determinado fator. No exemplo abaixo, a variável APLA é ordenada de maneira crescente para cada híbrido.

maize %>%
  group_by(HIB) %>%
  arrange(MGRA, .by_group = TRUE)

# A tibble: 780 × 10
# Groups:   HIB [13]
   AMB   HIB   REP   APLA_PLANT AIES_PLANT  CESP  DIES  MGRA   MMG  NGRA
   <chr> <chr> <chr>      <dbl>      <dbl> <dbl> <dbl> <dbl> <dbl> <dbl>
 1 A1    H1    II          3.15       1.78  10.9  NA    75.2  256.   294
 2 A3    H1    III         2.45       1.29   9    51.0  78.9  503.   157
 3 A3    H1    I           2.13       1.05  11.6  47.0  89.5  300.   298
 4 A3    H1    II          2.18       1.04  13    46.6 103.   351.   293
 5 A3    H1    II          2.08       0.94  12    47.6 103.   334.   309
 6 A3    H1    I           2.07       1.05  13.2  47.9 110.   293.   377
 7 A3    H1    II          1.93       0.93  13    50.0 120.   276.   433
 8 A2    H1    III         3.11       1.9   13    50.8 131.   402.   325
 9 A4    H1    I           2.3        1.25  13.1  50.0 140.   230.   609
10 A3    H1    II          2.39       1.21  14    50.2 144.   331.   435
# … with 770 more rows
…
# remove linhas com NA
maize |> remove_rows_na()

Warning: Row(s) 1, 7, 19, 124, 125, 257, 258, 259, 318, 319, 549, 550, 551, 552
with NA values deleted.

# A tibble: 766 × 10
   AMB   HIB   REP   APLA_PLANT AIES_PLANT  CESP  DIES  MGRA   MMG  NGRA
   <chr> <chr> <chr>      <dbl>      <dbl> <dbl> <dbl> <dbl> <dbl> <dbl>
 1 A1    H1    I           2.5        1.43  14.4  50.7  187.  437.   427
 2 A1    H1    I           2.69       1.52  16.5  54.7  230.  464.   497
 3 A1    H1    I           2.8        1.64  16.8  52.0  213.  408.   523
 4 A1    H1    I           2.62       1.55  15.9  51.6  224.  406.   551
 5 A1    H1    II          2.12       1.8   15    51.4  203.  383.   529
 6 A1    H1    II          2.97       1.84  15    53.4  204.  387.   528
 7 A1    H1    II          3.1        1.78  13.6  50.8  187.  348.   538
 8 A1    H1    II          3.02       1.6   16.3  53.9  250.  430.   582
 9 A1    H1    III         2.69       1.52  15.6  49.5  195.  369.   529
10 A1    H1    III         2.6        1.68  14.3  48.9  172.  344.   500
# … with 756 more rows

# substitu NA por 0
maize |> replace_na()

# A tibble: 780 × 10
   AMB   HIB   REP   APLA_PLANT AIES_PLANT  CESP  DIES  MGRA   MMG  NGRA
   <chr> <chr> <chr>      <dbl>      <dbl> <dbl> <dbl> <dbl> <dbl> <dbl>
 1 A1    H1    I           2.45       2.39  16.9  52.1 228.   375.     0
 2 A1    H1    I           2.5        1.43  14.4  50.7 187.   437.   427
 3 A1    H1    I           2.69       1.52  16.5  54.7 230.   464.   497
 4 A1    H1    I           2.8        1.64  16.8  52.0 213.   408.   523
 5 A1    H1    I           2.62       1.55  15.9  51.6 224.   406.   551
 6 A1    H1    II          2.12       1.8   15    51.4 203.   383.   529
 7 A1    H1    II          3.15       1.78  10.9   0    75.2  256.   294
 8 A1    H1    II          2.97       1.84  15    53.4 204.   387.   528
 9 A1    H1    II          3.1        1.78  13.6  50.8 187.   348.   538
10 A1    H1    II          3.02       1.6   16.3  53.9 250.   430.   582
# … with 770 more rows

# substitui NA pela média da coluna (cuidado!!!)
maize |> replace_na(replacement = "colmean")

# A tibble: 780 × 10
   AMB   HIB   REP   APLA_PLANT AIES_PLANT  CESP  DIES  MGRA   MMG  NGRA
   <chr> <chr> <chr>      <dbl>      <dbl> <dbl> <dbl> <dbl> <dbl> <dbl>
 1 A1    H1    I           2.45       2.39  16.9  52.1 228.   375.  512.
 2 A1    H1    I           2.5        1.43  14.4  50.7 187.   437.  427 
 3 A1    H1    I           2.69       1.52  16.5  54.7 230.   464.  497 
 4 A1    H1    I           2.8        1.64  16.8  52.0 213.   408.  523 
 5 A1    H1    I           2.62       1.55  15.9  51.6 224.   406.  551 
 6 A1    H1    II          2.12       1.8   15    51.4 203.   383.  529 
 7 A1    H1    II          3.15       1.78  10.9  49.5  75.2  256.  294 
 8 A1    H1    II          2.97       1.84  15    53.4 204.   387.  528 
 9 A1    H1    II          3.1        1.78  13.6  50.8 187.   348.  538 
10 A1    H1    II          3.02       1.6   16.3  53.9 250.   430.  582 
# … with 770 more rows
…
